02-22 08:17:17.122 publishWithPubAckCallbacks/topic:/ls_req/qos:1/len:276
02-22 08:19:56.779 [service_manager] pid=30275; event=doInit; persistent_level=ALWAYS; 
02-22 08:19:57.190 [life_cycle] pid=30275; event=doCreate; 
02-22 08:19:57.210 publishWithPubAckCallbacks/topic:/ls_req/qos:1/len:204
02-22 08:19:57.220 publishWithPubAckCallbacks/topic:/ls_req/qos:1/len:252
02-22 08:19:57.224 [start_command] caller=setEnabledForAllowedProcesses; action=Orca.START; 
02-22 08:19:57.226 publishWithPubAckCallbacks/topic:/ls_req/qos:1/len:228
02-22 08:19:57.233 publishWithPubAckCallbacks/topic:/ls_req/qos:1/len:460
02-22 08:19:57.239 publishWithPubAckCallbacks/topic:/ls_req/qos:1/len:204
02-22 08:19:57.248 publishWithPubAckCallbacks/topic:/ls_req/qos:1/len:212
02-22 08:19:57.254 publishWithPubAckCallbacks/topic:/ls_req/qos:0/len:164
02-22 08:19:57.269 publishWithPubAckCallbacks/topic:/ls_req/qos:0/len:164
02-22 08:19:57.328 [state_machine] DISCONNECTED -> CONNECTING
02-22 08:19:57.344 [service_manager] pid=30275; event=onDeviceActive; 
02-22 08:19:57.372 [service_manager] pid=30275; event=onAppActive; 
02-22 08:19:57.388 [start_command] caller=onDeviceActive; action=Orca.PERSISTENT_KICK_SKIP_PING; 
02-22 08:19:57.398 [start_command] caller=onAppActive; action=Orca.PERSISTENT_KICK_SKIP_PING; 
02-22 08:19:57.422 [mqtt_connect_attempt] connect_result=true; connect_duration_ms=115; 
02-22 08:19:57.426 publishWithPubAckCallbacks/topic:/ls_req/qos:1/len:292
02-22 08:19:57.426 [state_machine] CONNECTING -> CONNECTED
02-22 08:19:57.434 [mqtt_connection_retries] process_id=30275; service_session_id=8208511; service_name=MqttLite; retry_count=1; retry_duration_ms=180; logger_object_id=1; network_session_id=8208497; 
02-22 08:19:59.302 publishWithPubAckCallbacks/topic:/ls_req/qos:1/len:204
02-22 08:19:59.315 publishWithPubAckCallbacks/topic:/ls_req/qos:1/len:252
02-22 08:19:59.326 publishWithPubAckCallbacks/topic:/ls_req/qos:1/len:228
02-22 08:19:59.334 publishWithPubAckCallbacks/topic:/ls_req/qos:1/len:460
02-22 08:19:59.343 publishWithPubAckCallbacks/topic:/ls_req/qos:1/len:204
02-22 08:19:59.400 publishWithPubAckCallbacks/topic:/ls_req/qos:1/len:236
02-22 08:20:00.756 publishWithPubAckCallbacks/topic:/ls_req/qos:1/len:220
02-22 08:20:09.121 publishWithPubAckCallbacks/topic:/ls_req/qos:1/len:276
02-22 08:20:09.336 [service_manager] pid=30275; event=startOnDemand; 
02-22 08:20:09.992 [start_command] caller=startOnDemand; action=Orca.PERSISTENT_KICK; 
02-22 08:21:08.189 publishWithPubAckCallbacks/topic:/ls_req/qos:1/len:492
02-22 08:21:13.035 publishWithPubAckCallbacks/topic:/ls_req/qos:1/len:276
02-22 08:21:23.142 publishWithPubAckCallbacks/topic:/ls_req/qos:1/len:276
02-22 08:21:23.413 [service_manager] pid=30275; event=startOnDemand; 
02-22 08:21:24.151 [start_command] caller=startOnDemand; action=Orca.PERSISTENT_KICK; 
02-22 08:23:25.200 [service_manager] pid=32053; event=doInit; persistent_level=ALWAYS; 
02-22 08:23:25.519 [life_cycle] pid=32053; event=doCreate; 
02-22 08:23:25.646 publishWithPubAckCallbacks/topic:/ls_req/qos:1/len:204
02-22 08:23:25.655 publishWithPubAckCallbacks/topic:/ls_req/qos:1/len:252
02-22 08:23:25.662 publishWithPubAckCallbacks/topic:/ls_req/qos:1/len:228
02-22 08:23:25.672 publishWithPubAckCallbacks/topic:/ls_req/qos:1/len:460
02-22 08:23:25.678 publishWithPubAckCallbacks/topic:/ls_req/qos:1/len:204
02-22 08:23:25.684 publishWithPubAckCallbacks/topic:/ls_req/qos:1/len:212
02-22 08:23:25.690 publishWithPubAckCallbacks/topic:/ls_req/qos:0/len:164
02-22 08:23:25.867 [start_command] caller=setEnabledForAllowedProcesses; action=Orca.START; 
02-22 08:23:25.969 [state_machine] DISCONNECTED -> CONNECTING
02-22 08:23:26.073 [mqtt_connect_attempt] connect_result=true; connect_duration_ms=128; 
02-22 08:23:26.078 [state_machine] CONNECTING -> CONNECTED
02-22 08:23:26.085 [mqtt_connection_retries] process_id=32053; service_session_id=8416889; service_name=MqttLite; retry_count=1; retry_duration_ms=182; logger_object_id=1; network_session_id=8416880; 
02-22 08:23:26.133 publishWithPubAckCallbacks/topic:/ls_req/qos:0/len:164
02-22 08:23:26.208 [service_manager] pid=32053; event=onDeviceActive; 
02-22 08:23:26.247 [service_manager] pid=32053; event=onAppActive; 
02-22 08:23:26.279 [start_command] caller=onDeviceActive; action=Orca.PERSISTENT_KICK_SKIP_PING; 
02-22 08:23:26.289 [start_command] caller=onAppActive; action=Orca.PERSISTENT_KICK_SKIP_PING; 
02-22 08:23:26.341 publishWithPubAckCallbacks/topic:/ls_req/qos:1/len:292
02-22 08:23:27.323 publishWithPubAckCallbacks/topic:/ls_req/qos:1/len:236
02-22 08:23:28.139 publishWithPubAckCallbacks/topic:/ls_req/qos:1/len:204
02-22 08:23:28.150 publishWithPubAckCallbacks/topic:/ls_req/qos:1/len:252
02-22 08:23:28.159 publishWithPubAckCallbacks/topic:/ls_req/qos:1/len:228
02-22 08:23:28.168 publishWithPubAckCallbacks/topic:/ls_req/qos:1/len:460
02-22 08:23:28.178 publishWithPubAckCallbacks/topic:/ls_req/qos:1/len:204
02-22 08:23:29.588 publishWithPubAckCallbacks/topic:/ls_req/qos:1/len:220
02-22 08:23:37.850 publishWithPubAckCallbacks/topic:/ls_req/qos:1/len:276
02-22 08:23:38.256 [service_manager] pid=32053; event=startOnDemand; 
02-22 08:23:38.990 [start_command] caller=startOnDemand; action=Orca.PERSISTENT_KICK; 
02-22 08:23:52.571 publishWithPubAckCallbacks/topic:/ls_req/qos:1/len:500
02-22 08:23:58.100 publishWithPubAckCallbacks/topic:/ls_req/qos:1/len:276
02-22 08:24:00.619 publishWithPubAckCallbacks/topic:/ls_req/qos:1/len:276
02-22 08:24:15.217 publishWithPubAckCallbacks/topic:/ls_req/qos:1/len:500
02-22 08:24:20.042 publishWithPubAckCallbacks/topic:/ls_req/qos:1/len:276
02-22 08:25:32.096 [service_manager] pid=32738; event=doInit; persistent_level=ALWAYS; 
02-22 08:25:32.266 [life_cycle] pid=32738; event=doCreate; 
02-22 08:25:32.420 publishWithPubAckCallbacks/topic:/ls_req/qos:1/len:204
02-22 08:25:32.434 publishWithPubAckCallbacks/topic:/ls_req/qos:1/len:252
02-22 08:25:32.442 publishWithPubAckCallbacks/topic:/ls_req/qos:1/len:228
02-22 08:25:32.451 publishWithPubAckCallbacks/topic:/ls_req/qos:1/len:460
02-22 08:25:32.459 publishWithPubAckCallbacks/topic:/ls_req/qos:1/len:204
02-22 08:25:32.467 publishWithPubAckCallbacks/topic:/ls_req/qos:1/len:212
02-22 08:25:32.473 publishWithPubAckCallbacks/topic:/ls_req/qos:0/len:164
02-22 08:25:32.535 [start_command] caller=setEnabledForAllowedProcesses; action=Orca.START; 
02-22 08:25:32.687 [state_machine] DISCONNECTED -> CONNECTING
02-22 08:25:32.789 publishWithPubAckCallbacks/topic:/ls_req/qos:0/len:164
02-22 08:25:32.808 [mqtt_connect_attempt] connect_result=true; connect_duration_ms=166; 
02-22 08:25:32.813 [state_machine] CONNECTING -> CONNECTED
02-22 08:25:32.818 [mqtt_connection_retries] process_id=32738; service_session_id=8543643; service_name=MqttLite; retry_count=1; retry_duration_ms=230; logger_object_id=1; network_session_id=8543635; 
02-22 08:25:32.883 [service_manager] pid=32738; event=onDeviceActive; 
02-22 08:25:32.918 [service_manager] pid=32738; event=onAppActive; 
02-22 08:25:32.951 [start_command] caller=onDeviceActive; action=Orca.PERSISTENT_KICK_SKIP_PING; 
02-22 08:25:32.963 [start_command] caller=onAppActive; action=Orca.PERSISTENT_KICK_SKIP_PING; 
02-22 08:25:32.996 publishWithPubAckCallbacks/topic:/ls_req/qos:1/len:292
02-22 08:25:34.717 publishWithPubAckCallbacks/topic:/ls_req/qos:1/len:236
02-22 08:25:34.793 publishWithPubAckCallbacks/topic:/ls_req/qos:1/len:204
02-22 08:25:34.806 publishWithPubAckCallbacks/topic:/ls_req/qos:1/len:252
02-22 08:25:34.817 publishWithPubAckCallbacks/topic:/ls_req/qos:1/len:228
02-22 08:25:34.828 publishWithPubAckCallbacks/topic:/ls_req/qos:1/len:460
02-22 08:25:34.838 publishWithPubAckCallbacks/topic:/ls_req/qos:1/len:204
02-22 08:25:36.413 publishWithPubAckCallbacks/topic:/ls_req/qos:1/len:220
02-22 08:25:45.248 publishWithPubAckCallbacks/topic:/ls_req/qos:1/len:276
02-22 08:25:45.524 [service_manager] pid=32738; event=startOnDemand; 
02-22 08:25:46.415 [start_command] caller=startOnDemand; action=Orca.PERSISTENT_KICK; 
02-22 08:26:16.162 publishWithPubAckCallbacks/topic:/ls_req/qos:1/len:540
02-22 08:26:55.627 publishWithPubAckCallbacks/topic:/ls_req/qos:1/len:300
02-22 08:27:00.451 publishWithPubAckCallbacks/topic:/ls_req/qos:1/len:276
02-22 08:27:01.974 publishWithPubAckCallbacks/topic:/ls_req/qos:1/len:276
02-22 08:27:02.231 [service_manager] pid=32738; event=startOnDemand; 
02-22 08:27:02.255 [start_command] caller=startOnDemand; action=Orca.PERSISTENT_KICK; 
02-22 08:27:17.927 publishWithPubAckCallbacks/topic:/ls_req/qos:1/len:540
02-22 08:27:49.603 publishWithPubAckCallbacks/topic:/ls_req/qos:1/len:300
02-22 08:27:54.424 publishWithPubAckCallbacks/topic:/ls_req/qos:1/len:276
02-22 08:27:56.337 publishWithPubAckCallbacks/topic:/ls_req/qos:1/len:276
02-22 08:28:11.934 publishWithPubAckCallbacks/topic:/ls_req/qos:1/len:532
02-22 08:30:31.542 [service_manager] pid=3101; event=doInit; persistent_level=ALWAYS; 
02-22 08:30:32.088 [life_cycle] pid=3101; event=doCreate; 
02-22 08:30:32.132 publishWithPubAckCallbacks/topic:/ls_req/qos:1/len:212
02-22 08:30:32.145 publishWithPubAckCallbacks/topic:/ls_req/qos:1/len:204
02-22 08:30:32.153 publishWithPubAckCallbacks/topic:/ls_req/qos:1/len:252
02-22 08:30:32.161 publishWithPubAckCallbacks/topic:/ls_req/qos:1/len:228
02-22 08:30:32.172 publishWithPubAckCallbacks/topic:/ls_req/qos:1/len:452
02-22 08:30:32.187 publishWithPubAckCallbacks/topic:/ls_req/qos:1/len:204
02-22 08:30:32.195 publishWithPubAckCallbacks/topic:/ls_req/qos:0/len:164
02-22 08:30:32.206 [start_command] caller=setEnabledForAllowedProcesses; action=Orca.START; 
02-22 08:30:32.232 publishWithPubAckCallbacks/topic:/ls_req/qos:0/len:164
02-22 08:30:32.333 [state_machine] DISCONNECTED -> CONNECTING
02-22 08:30:32.434 [mqtt_connect_attempt] connect_result=true; connect_duration_ms=136; 
02-22 08:30:32.440 [service_manager] pid=3101; event=onDeviceActive; 
02-22 08:30:32.473 [service_manager] pid=3101; event=onAppActive; 
02-22 08:30:32.502 [state_machine] CONNECTING -> CONNECTED
02-22 08:30:32.510 [mqtt_connection_retries] process_id=3101; service_session_id=8843426; service_name=MqttLite; retry_count=1; retry_duration_ms=260; logger_object_id=1; network_session_id=8843405; 
02-22 08:30:32.512 [start_command] caller=onDeviceActive; action=Orca.PERSISTENT_KICK_SKIP_PING; 
02-22 08:30:32.521 [start_command] caller=onAppActive; action=Orca.PERSISTENT_KICK_SKIP_PING; 
02-22 08:30:32.559 publishWithPubAckCallbacks/topic:/ls_req/qos:1/len:284
02-22 08:30:33.668 publishWithPubAckCallbacks/topic:/ls_req/qos:1/len:236
02-22 08:30:34.274 publishWithPubAckCallbacks/topic:/ls_req/qos:1/len:204
02-22 08:30:34.289 publishWithPubAckCallbacks/topic:/ls_req/qos:1/len:252
02-22 08:30:34.297 publishWithPubAckCallbacks/topic:/ls_req/qos:1/len:228
02-22 08:30:34.305 publishWithPubAckCallbacks/topic:/ls_req/qos:1/len:452
02-22 08:30:34.315 publishWithPubAckCallbacks/topic:/ls_req/qos:1/len:204
02-22 08:30:37.357 publishWithPubAckCallbacks/topic:/ls_req/qos:1/len:276
02-22 08:30:37.673 [service_manager] pid=3101; event=startOnDemand; 
02-22 08:30:38.401 [start_command] caller=startOnDemand; action=Orca.PERSISTENT_KICK; 
02-22 08:30:39.477 publishWithPubAckCallbacks/topic:/ls_req/qos:1/len:220
02-22 08:30:47.590 publishWithPubAckCallbacks/topic:/ls_req/qos:1/len:292
02-22 08:30:49.751 publishWithPubAckCallbacks/topic:/ls_req/qos:1/len:276
02-22 08:30:51.510 publishWithPubAckCallbacks/topic:/ls_req/qos:1/len:276
02-22 08:30:52.804 publishWithPubAckCallbacks/topic:/ls_req/qos:1/len:276
02-22 08:31:00.140 publishWithPubAckCallbacks/topic:/ls_req/qos:0/len:164
02-22 08:32:59.290 [service_manager] pid=3101; event=onAppStopped; 
02-22 08:32:59.393 publishWithPubAckCallbacks/topic:/ls_req/qos:1/len:284
02-22 08:37:43.451 [keep_alive] send ping
