metadata.client_urn,metadata.hostname,metadata.os,metadata.client_age,metadata.uname,metadata.os_release,metadata.os_version,metadata.usernames,metadata.mac_address,metadata.timestamp,metadata.original_timestamp,metadata.deprecated_session_id,metadata.labels,metadata.system_labels,metadata.user_labels,metadata.source_urn,metadata.annotations,metadata.hardware_info.serial_number,metadata.hardware_info.system_manufacturer,metadata.hardware_info.system_product_name,metadata.hardware_info.system_uuid,metadata.hardware_info.system_sku_number,metadata.hardware_info.system_family,metadata.hardware_info.bios_vendor,metadata.hardware_info.bios_version,metadata.hardware_info.bios_release_date,metadata.hardware_info.bios_rom_size,metadata.hardware_info.bios_revision,metadata.hardware_info.system_assettag,metadata.kernel_version,type,phoneNumber,contactName,date,duration,isAcknowledged,countryIso,geocodedLocation,presentation
aff4:/C.156d477f550056db,,,None,,,,,,2023-02-19 16:31:54,None,None,,,,aff4:/C.156d477f550056db/flows/F:1DA4F2EB,,,,,,,,,,,,,,,TYPE_MISSED,+35679928853,,2022-11-21 09:18:54,0w,0,MT,Malta,PRESENTATION_ALLOWED
aff4:/C.156d477f550056db,,,None,,,,,,2023-02-19 16:31:54,None,None,,,,aff4:/C.156d477f550056db/flows/F:1DA4F2EB,,,,,,,,,,,,,,,TYPE_OUTGOING,+35679928853,,2022-12-27 23:07:56,0w,1,MT,Malta,PRESENTATION_ALLOWED
aff4:/C.156d477f550056db,,,None,,,,,,2023-02-19 16:31:54,None,None,,,,aff4:/C.156d477f550056db/flows/F:1DA4F2EB,,,,,,,,,,,,,,,TYPE_OUTGOING,+35679928853,,2022-12-29 10:34:19,0w,1,MT,Malta,PRESENTATION_ALLOWED
aff4:/C.156d477f550056db,,,None,,,,,,2023-02-19 16:31:54,None,None,,,,aff4:/C.156d477f550056db/flows/F:1DA4F2EB,,,,,,,,,,,,,,,TYPE_OUTGOING,+35679928853,,2022-12-29 10:34:38,2s,1,MT,Malta,PRESENTATION_ALLOWED
aff4:/C.156d477f550056db,,,None,,,,,,2023-02-19 16:31:54,None,None,,,,aff4:/C.156d477f550056db/flows/F:1DA4F2EB,,,,,,,,,,,,,,,TYPE_MISSED,+35679928853,,2023-01-01 20:59:33,0w,0,MT,Malta,PRESENTATION_ALLOWED
aff4:/C.156d477f550056db,,,None,,,,,,2023-02-19 16:31:54,None,None,,,,aff4:/C.156d477f550056db/flows/F:1DA4F2EB,,,,,,,,,,,,,,,TYPE_MISSED,+35679928853,Jennifer,2023-01-02 10:33:33,0w,0,MT,Malta,PRESENTATION_ALLOWED
aff4:/C.156d477f550056db,,,None,,,,,,2023-02-19 16:31:54,None,None,,,,aff4:/C.156d477f550056db/flows/F:1DA4F2EB,,,,,,,,,,,,,,,TYPE_INCOMING,+40678213358,,2023-01-23 10:03:24,0w,1,MT,,PRESENTATION_ALLOWED
aff4:/C.156d477f550056db,,,None,,,,,,2023-02-19 16:31:54,None,None,,,,aff4:/C.156d477f550056db/flows/F:1DA4F2EB,,,,,,,,,,,,,,,TYPE_REJECTED,+19283701068,,2023-01-24 10:50:19,0w,1,MT,,PRESENTATION_ALLOWED
