{"_id":1,"body":null,"markdown_body":null,"partner_jid":"jablooooo_k81@talk.kik.com","was_me":0,"read_state":500,"uid":"fe459a83-6607-4087-ba72-1d7071c1db6e","length":41,"timestamp":1677258320196,"bin_id":"jablooooo_k81@talk.kik.com","sys_msg":null,"stat_msg":"You added Jennifer by scanning a Kik Code","stat_user_jid":"jablooooo_k81@talk.kik.com","stat_special_visibility":1,"req_read_reciept":0,"content_id":null,"app_id":null,"message_retry_count":0,"encryption_failure":0,"render_instructions":null,"friend_attr_id":null,"server_sig":null,"mentioned_contact_id":null,"core_message_proto_bytes":null,"is_latest_from_correspondent_in_bin":0,"is_big_emoji":0,"friend_made_jid":"","kin_tipped":null}
{"_id":2,"body":"Hey","markdown_body":null,"partner_jid":"jablooooo_k81@talk.kik.com","was_me":1,"read_state":400,"uid":"e556c93f-25b3-40ba-a3c2-64e098f397ff","length":3,"timestamp":1677258327643,"bin_id":"jablooooo_k81@talk.kik.com","sys_msg":null,"stat_msg":null,"stat_user_jid":null,"stat_special_visibility":null,"req_read_reciept":0,"content_id":null,"app_id":null,"message_retry_count":0,"encryption_failure":0,"render_instructions":"","friend_attr_id":null,"server_sig":null,"mentioned_contact_id":null,"core_message_proto_bytes":null,"is_latest_from_correspondent_in_bin":0,"is_big_emoji":0,"friend_made_jid":"","kin_tipped":null}
{"_id":3,"body":null,"markdown_body":null,"partner_jid":"patt0014_xbe@talk.kik.com","was_me":0,"read_state":500,"uid":"1ebacfea-a723-4985-97b1-a6792fb8939f","length":43,"timestamp":1677431276978,"bin_id":"patt0014_xbe@talk.kik.com","sys_msg":null,"stat_msg":"Patrick added you by scanning your Kik Code","stat_user_jid":"patt0014_xbe@talk.kik.com","stat_special_visibility":1,"req_read_reciept":0,"content_id":null,"app_id":null,"message_retry_count":0,"encryption_failure":0,"render_instructions":null,"friend_attr_id":null,"server_sig":null,"mentioned_contact_id":null,"core_message_proto_bytes":null,"is_latest_from_correspondent_in_bin":0,"is_big_emoji":0,"friend_made_jid":"","kin_tipped":null}
{"_id":4,"body":"Hey!!","markdown_body":null,"partner_jid":"patt0014_xbe@talk.kik.com","was_me":0,"read_state":500,"uid":"4ea631a7-8c04-4337-b7c3-6d3dba8aa391","length":5,"timestamp":1677431285693,"bin_id":"patt0014_xbe@talk.kik.com","sys_msg":null,"stat_msg":null,"stat_user_jid":null,"stat_special_visibility":null,"req_read_reciept":1,"content_id":null,"app_id":null,"message_retry_count":0,"encryption_failure":0,"render_instructions":"","friend_attr_id":null,"server_sig":null,"mentioned_contact_id":null,"core_message_proto_bytes":"b''","is_latest_from_correspondent_in_bin":0,"is_big_emoji":0,"friend_made_jid":"","kin_tipped":null}
{"_id":5,"body":null,"markdown_body":null,"partner_jid":"johndoetxn1_ifs@talk.kik.com","was_me":0,"read_state":500,"uid":"cfdbd58b-c9ff-477c-93b1-e2dad3a3fd77","length":0,"timestamp":1677431346589,"bin_id":"johndoetxn1_ifs@talk.kik.com","sys_msg":null,"stat_msg":null,"stat_user_jid":null,"stat_special_visibility":null,"req_read_reciept":0,"content_id":null,"app_id":null,"message_retry_count":0,"encryption_failure":0,"render_instructions":null,"friend_attr_id":1,"server_sig":null,"mentioned_contact_id":null,"core_message_proto_bytes":null,"is_latest_from_correspondent_in_bin":0,"is_big_emoji":0,"friend_made_jid":"","kin_tipped":null}
{"_id":6,"body":"Hey","markdown_body":null,"partner_jid":"johndoetxn1_ifs@talk.kik.com","was_me":1,"read_state":400,"uid":"d7148c60-9b11-4acb-843f-7da461e47af6","length":3,"timestamp":1677431542825,"bin_id":"johndoetxn1_ifs@talk.kik.com","sys_msg":null,"stat_msg":null,"stat_user_jid":null,"stat_special_visibility":null,"req_read_reciept":0,"content_id":null,"app_id":null,"message_retry_count":0,"encryption_failure":0,"render_instructions":"","friend_attr_id":null,"server_sig":null,"mentioned_contact_id":null,"core_message_proto_bytes":null,"is_latest_from_correspondent_in_bin":0,"is_big_emoji":0,"friend_made_jid":"","kin_tipped":null}
{"_id":7,"body":"Hey","markdown_body":null,"partner_jid":"patt0014_xbe@talk.kik.com","was_me":1,"read_state":400,"uid":"629bef12-1747-4c3a-a6c6-6bfc94db261c","length":3,"timestamp":1677431578236,"bin_id":"patt0014_xbe@talk.kik.com","sys_msg":null,"stat_msg":null,"stat_user_jid":null,"stat_special_visibility":null,"req_read_reciept":0,"content_id":null,"app_id":null,"message_retry_count":0,"encryption_failure":0,"render_instructions":"","friend_attr_id":null,"server_sig":null,"mentioned_contact_id":null,"core_message_proto_bytes":null,"is_latest_from_correspondent_in_bin":0,"is_big_emoji":0,"friend_made_jid":"","kin_tipped":null}
{"_id":8,"body":"Hey, how are you? 0_zezqbafszmzvyzx","markdown_body":null,"partner_jid":"patt0014_xbe@talk.kik.com","was_me":1,"read_state":400,"uid":"536d1f91-34e7-488c-b19b-f313899637e1","length":35,"timestamp":1677490036214,"bin_id":"patt0014_xbe@talk.kik.com","sys_msg":null,"stat_msg":null,"stat_user_jid":null,"stat_special_visibility":null,"req_read_reciept":0,"content_id":null,"app_id":null,"message_retry_count":0,"encryption_failure":0,"render_instructions":"","friend_attr_id":null,"server_sig":null,"mentioned_contact_id":null,"core_message_proto_bytes":null,"is_latest_from_correspondent_in_bin":0,"is_big_emoji":0,"friend_made_jid":"","kin_tipped":null}
{"_id":9,"body":"Hey, how are you? 0_tqfaqoeufevsaid","markdown_body":null,"partner_jid":"johndoetxn1_ifs@talk.kik.com","was_me":1,"read_state":200,"uid":"a834911a-cd78-46b2-9d58-4e80b468c665","length":35,"timestamp":1677490993283,"bin_id":"johndoetxn1_ifs@talk.kik.com","sys_msg":null,"stat_msg":null,"stat_user_jid":null,"stat_special_visibility":null,"req_read_reciept":0,"content_id":null,"app_id":null,"message_retry_count":0,"encryption_failure":0,"render_instructions":"","friend_attr_id":null,"server_sig":null,"mentioned_contact_id":null,"core_message_proto_bytes":null,"is_latest_from_correspondent_in_bin":0,"is_big_emoji":0,"friend_made_jid":"","kin_tipped":null}
{"_id":10,"body":"Hey, how are you? 0_wzbflzfumdntaph","markdown_body":null,"partner_jid":"jablooooo_k81@talk.kik.com","was_me":1,"read_state":400,"uid":"5ba5dae1-b97a-4777-9b48-c069536e3aa4","length":35,"timestamp":1677492017520,"bin_id":"jablooooo_k81@talk.kik.com","sys_msg":null,"stat_msg":null,"stat_user_jid":null,"stat_special_visibility":null,"req_read_reciept":0,"content_id":null,"app_id":null,"message_retry_count":0,"encryption_failure":0,"render_instructions":"","friend_attr_id":null,"server_sig":null,"mentioned_contact_id":null,"core_message_proto_bytes":null,"is_latest_from_correspondent_in_bin":0,"is_big_emoji":0,"friend_made_jid":"","kin_tipped":null}
{"_id":11,"body":"Hey, how are you? 1_cyxflnodghnwaku","markdown_body":null,"partner_jid":"johndoetxn1_ifs@talk.kik.com","was_me":1,"read_state":200,"uid":"2f2e6861-3bed-4d0f-aa1e-4930ce8d28c3","length":35,"timestamp":1677492076689,"bin_id":"johndoetxn1_ifs@talk.kik.com","sys_msg":null,"stat_msg":null,"stat_user_jid":null,"stat_special_visibility":null,"req_read_reciept":0,"content_id":null,"app_id":null,"message_retry_count":0,"encryption_failure":0,"render_instructions":"","friend_attr_id":null,"server_sig":null,"mentioned_contact_id":null,"core_message_proto_bytes":null,"is_latest_from_correspondent_in_bin":0,"is_big_emoji":0,"friend_made_jid":"","kin_tipped":null}
