time,message,recipient,sender,in
1677493922,DHL: Your parcel is arriving, track here: https://flexisales.com/dhl?eep7j88cc5z3,+35679247196,+35679XXXXXX,1
1677503474,Hey, I think something is wrong with your phone. You sent me a suspicious message!,+35679247196,+35679XXXXXX,1
